…
suppressPackageStartupMessages({
  library(xml2)
  library(rvest)
  library(tidyverse)
})

webpage = xml2::read_html("https://en.wikipedia.org/wiki/List_of_busiest_passenger_air_routes")

raw_tbl = webpage %>% 
  html_element("table") %>% 
  html_table()

raw_tbl

## # A tibble: 50 x 7
##     Rank `Airport 1`  `Airport 2`    `Distance (km)` `2018[1]` `2017[2]` Type   
##    <int> <chr>        <chr>                    <int> <chr>     <chr>     <chr>  
##  1     1 Jeju         Seoul-Gimpo                449 14,107,4… 13,460,3… Domest…
##  2     2 Sapporo      Tokyo-Haneda               835 9,698,639 8,726,502 Domest…
##  3     3 Sydney       Melbourne                  705 9,245,392 9,090,941 Domest…
##  4     4 Fukuoka      Tokyo-Haneda               889 8,762,547 7,864,000 Domest…
##  5     5 Mumbai       Delhi                     1150 7,392,155 7,129,943 Domest…
##  6     6 Hanoi        Ho Chi Minh C…            1171 6,867,114 6,769,823 Domest…
##  7     7 Beijing      Shanghai-Hong…            1081 6,518,997 6,833,684 Domest…
##  8     8 Hong Kong    Taipei-Taoyuan             802 6,476,268 6,719,030 Intern…
##  9     9 Tokyo-Haneda Naha                      1573 5,829,712 5,269,481 Domest…
## 10    10 Jakarta      Surabaya                   700 5,649,046 5,271,304 Domest…
## # … with 40 more rows

## We are only interested in the 2018 passenger numbers
subset_tbl = raw_tbl %>% 
  dplyr::transmute(
    rank = Rank, 
    airport1 = `Airport 1`, 
    airport2 = `Airport 2`, 
    distance = `Distance (km)`, 
    passengers = `2018[1]` %>% str_remove_all(",") %>% as.integer(), 
    type = Type)

subset_tbl

## # A tibble: 50 x 6
##     rank airport1     airport2          distance passengers type         
##    <int> <chr>        <chr>                <int>      <int> <chr>        
##  1     1 Jeju         Seoul-Gimpo            449   14107414 Domestic     
##  2     2 Sapporo      Tokyo-Haneda           835    9698639 Domestic     
##  3     3 Sydney       Melbourne              705    9245392 Domestic     
##  4     4 Fukuoka      Tokyo-Haneda           889    8762547 Domestic     
##  5     5 Mumbai       Delhi                 1150    7392155 Domestic     
##  6     6 Hanoi        Ho Chi Minh City      1171    6867114 Domestic     
##  7     7 Beijing      Shanghai-Hongqiao     1081    6518997 Domestic     
##  8     8 Hong Kong    Taipei-Taoyuan         802    6476268 International
##  9     9 Tokyo-Haneda Naha                  1573    5829712 Domestic     
## 10    10 Jakarta      Surabaya               700    5649046 Domestic     
## # … with 40 more rows

write_csv(x = subset_tbl, file = "raw_airports_data.csv")

Notice that most of the “airports” are actually just the name of the city. We will use this to grab the longitude and latitude information. However, there are some exceptions like “Tokyo-Haneda”, where “Haneda” is one of the two international airports in the city of Tokyo. We will need to clean up these exceptions for consistency.

clean_tbl = subset_tbl %>% 
  dplyr::mutate(
    city1 = purrr::map_chr(.x = airport1,
                       .f = ~ str_split(.x, "-")[[1]][1]),
    city2 = purrr::map_chr(.x = airport2,
                       .f = ~ str_split(.x, "-")[[1]][1]))

clean_tbl

## # A tibble: 50 x 8
##     rank airport1   airport2     distance passengers type      city1   city2    
##    <int> <chr>      <chr>           <int>      <int> <chr>     <chr>   <chr>    
##  1     1 Jeju       Seoul-Gimpo       449   14107414 Domestic  Jeju    Seoul    
##  2     2 Sapporo    Tokyo-Haneda      835    9698639 Domestic  Sapporo Tokyo    
##  3     3 Sydney     Melbourne         705    9245392 Domestic  Sydney  Melbourne
##  4     4 Fukuoka    Tokyo-Haneda      889    8762547 Domestic  Fukuoka Tokyo    
##  5     5 Mumbai     Delhi            1150    7392155 Domestic  Mumbai  Delhi    
##  6     6 Hanoi      Ho Chi Minh…     1171    6867114 Domestic  Hanoi   Ho Chi M…
##  7     7 Beijing    Shanghai-Ho…     1081    6518997 Domestic  Beijing Shanghai 
##  8     8 Hong Kong  Taipei-Taoy…      802    6476268 Internat… Hong K… Taipei   
##  9     9 Tokyo-Han… Naha             1573    5829712 Domestic  Tokyo   Naha     
## 10    10 Jakarta    Surabaya          700    5649046 Domestic  Jakarta Surabaya 
## # … with 40 more rows
…
